codeA3/generated/SystemTop.vcd
$date
2021-12-01T12:09+0000
$end
$version
0.2
$end
$comment

$end
$timescale 1ns  $end
$scope module SystemTop $end
 $var wire 32 # io_testerDataMemDataRead $end
 $var wire 1 1 io_testerDataMemWriteEnable $end
 $var wire 32 V io_testerDataMemDataWrite $end
 $var wire 1 [ io_start $end
 $var wire 1 f io_testerDataMemEnable $end
 $var wire 1 y clock $end
 $var wire 16 "$ io_testerDataMemAddress $end
 $var wire 1 "% dataMemory $end
 $var wire 1 "( accelerator $end
 $var wire 1 "/ io_done $end
 $var wire 1 "O reset $end
  $scope module dataMemory $end
   $var wire 32 ! _GEN_11 $end
   $var wire 32 ' io_testerDataWrite $end
   $var wire 1 0 clock $end
   $var wire 1 3 io_testerEnable $end
   $var wire 32 C io_dataRead $end
   $var wire 32 D io_dataWrite $end
   $var wire 1 a io_testerWriteEnable $end
   $var wire 32 c _GEN_5 $end
   $var wire 16 u io_address $end
   $var wire 1 x io_writeEnable $end
   $var wire 16 ". io_testerAddress $end
   $var wire 32 "2 memory $end
   $var wire 32 "B io_testerDataRead $end
    $scope module memory $end
      $scope module _T_1 $end
       $var wire 16 % addr $end
       $var wire 16 . pipeline_addr_0 $end
       $var wire 1 6 en $end
       $var wire 32 S data $end
       $var wire 32 p pipeline_data_0 $end
       $var wire 1 ") pipeline_valid_0 $end
       $var wire 1 "7 valid $end
       $var wire 1 "D mask $end
       $var wire 1 "P clk $end
      $upscope $end
      $scope module _T $end
       $var wire 1 ( clk $end
       $var wire 16 t addr $end
       $var wire 1 w en $end
       $var wire 32 "I data $end
      $upscope $end
      $scope module _T_3 $end
       $var wire 1 4 pipeline_valid_0 $end
       $var wire 1 9 en $end
       $var wire 1 : mask $end
       $var wire 16 > pipeline_addr_0 $end
       $var wire 16 ] addr $end
       $var wire 1 r clk $end
       $var wire 32 "& pipeline_data_0 $end
       $var wire 32 "6 data $end
       $var wire 1 "V valid $end
      $upscope $end
      $scope module _T_2 $end
       $var wire 1 ? clk $end
       $var wire 16 E addr $end
       $var wire 32 m data $end
       $var wire 1 "" en $end
      $upscope $end
    $upscope $end
  $upscope $end
  $scope module accelerator $end
   $var wire 4 " _GEN_2 $end
   $var wire 16 $ _GEN_13 $end
   $var wire 16 & _GEN_96 $end
   $var wire 16 ) _GEN_104 $end
   $var wire 16 * pixelReg $end
   $var wire 4 + _GEN_90 $end
   $var wire 32 , _GEN_78 $end
   $var wire 4 - _GEN_107 $end
   $var wire 16 / _GEN_99 $end
   $var wire 16 2 _GEN_84 $end
   $var wire 16 5 yReg $end
   $var wire 16 7 _GEN_66 $end
   $var wire 16 8 _GEN_72 $end
   $var wire 1 ; _GEN_87 $end
   $var wire 32 < _GEN_8 $end
   $var wire 1 = _GEN_93 $end
   $var wire 16 @ _GEN_81 $end
   $var wire 16 A _GEN_75 $end
   $var wire 16 B _GEN_54 $end
   $var wire 16 F _GEN_60 $end
   $var wire 1 G _GEN_69 $end
   $var wire 16 H _GEN_106 $end
   $var wire 1 I _GEN_15 $end
   $var wire 4 J _GEN_42 $end
   $var wire 4 K _GEN_112 $end
   $var wire 4 L _GEN_36 $end
   $var wire 32 M _GEN_63 $end
   $var wire 32 N _GEN_21 $end
   $var wire 1 O reset $end
   $var wire 4 P _GEN_24 $end
   $var wire 4 Q _GEN_30 $end
   $var wire 16 R _GEN_7 $end
   $var wire 16 T _GEN_92 $end
   $var wire 16 U _GEN_18 $end
   $var wire 1 W _GEN_109 $end
   $var wire 16 X _GEN_100 $end
   $var wire 32 Y _GEN_118 $end
   $var wire 1 Z _GEN_103 $end
   $var wire 4 \ _GEN_74 $end
   $var wire 1 ^ _GEN_95 $end
   $var wire 16 _ _GEN_80 $end
   $var wire 16 ` _GEN_89 $end
   $var wire 4 b _GEN_12 $end
   $var wire 4 d stateReg $end
   $var wire 16 e _GEN_1 $end
   $var wire 1 g _GEN_77 $end
   $var wire 16 h _GEN_83 $end
   $var wire 1 i _T $end
   $var wire 1 j _GEN_62 $end
   $var wire 16 k _GEN_98 $end
   $var wire 32 l _GEN_56 $end
   $var wire 32 n _GEN_38 $end
   $var wire 32 o _GEN_86 $end
   $var wire 4 q _GEN_59 $end
   $var wire 1 s _GEN_71 $end
   $var wire 16 v _GEN_65 $end
   $var wire 32 z _GEN_32 $end
   $var wire 16 { _GEN_53 $end
   $var wire 1 | io_done $end
   $var wire 16 } _GEN_11 $end
   $var wire 16 ~ _GEN_68 $end
   $var wire 32 "! _GEN_26 $end
   $var wire 1 "# io_writeEnable $end
   $var wire 16 "' _GEN_29 $end
   $var wire 32 "* _GEN_14 $end
   $var wire 16 "+ _GEN_20 $end
   $var wire 16 ", _GEN_105 $end
   $var wire 16 "- xReg $end
   $var wire 16 "0 _GEN_17 $end
   $var wire 16 "1 io_dataWrite $end
   $var wire 1 "3 _GEN_85 $end
   $var wire 16 "4 _GEN_91 $end
   $var wire 16 "5 _GEN_108 $end
   $var wire 4 "8 _GEN_6 $end
   $var wire 16 "9 _GEN_0 $end
   $var wire 16 ": io_address $end
   $var wire 1 "; clock $end
   $var wire 1 "< _GEN_9 $end
   $var wire 32 "= _GEN_102 $end
   $var wire 16 "> _GEN_88 $end
   $var wire 1 "? io_start $end
   $var wire 16 "@ io_dataRead $end
   $var wire 16 "A _GEN_73 $end
   $var wire 4 "C _GEN_67 $end
   $var wire 32 "E _GEN_94 $end
   $var wire 16 "F _GEN_61 $end
   $var wire 4 "G _GEN_82 $end
   $var wire 4 "H _GEN_97 $end
   $var wire 32 "J _GEN_3 $end
   $var wire 16 "K _GEN_76 $end
   $var wire 32 "L _GEN_113 $end
   $var wire 32 "M _GEN_70 $end
   $var wire 1 "N _GEN_79 $end
   $var wire 1 "Q _GEN_64 $end
   $var wire 16 "R _GEN_46 $end
   $var wire 1 "S _GEN_101 $end
   $var wire 4 "T _GEN_19 $end
   $var wire 16 "U _GEN_25 $end
  $upscope $end
$upscope $end
$enddefinitions $end
$dumpvars
b0000000000000000 ]
b00000000000000000000000000000000 Y
b0000000000000000 H
0"7
0""
b00000000000000000000000000000000 <
b00000000000000000000000000000000 '
b00000000000000000000000000000000 n
b0000000000000000 t
b0000000000000000 "0
b0000000000000000 B
0=
b00000000000000000000000000000000 "M
0"P
b0000 "H
b00000000000000000000000000000000 l
b00000000000000000000000000000000 "2
b0000000000000000 >
b0000000000000000 )
b0000 Q
b00000000000000000000000000000000 "I
b0000000000000000 @
0g
b0000 K
b0000000000000000 %
0")
0a
0"#
0x
b0000000000000000 "9
b00000000000000000000000000000000 "*
0[
b0000000000000000 "1
0r
0"Q
0"<
b0000000000000000 "5
b00000000000000000000000000000000 "&
0W
b0000000000000000 "-
b0000000000000000 *
b0000000000000000 {
b00000000000000000000000000000000 "=
b0000 q
b0000000000000000 u
b0000000000000000 `
0"O
b0000000000000000 X
b0000000000000000 .
b0000 "
06
b0000000000000000 E
b0000000000000000 "@
b00000000000000000000000000000000 V
b00000000000000000000000000000000 m
b0000 P
b0000000000000000 T
0O
b0000000000000000 k
0f
b0000 J
b0000000000000000 "'
0I
04
0"(
b00000000000000000000000000000000 "L
b0000000000000000 ">
0"?
b0000000000000000 "U
0w
0"V
b0000000000000000 5
00
0(
0?
b0000 -
b00000000000000000000000000000000 D
b0000000000000000 ".
0;
b0000000000000000 _
0Z
0"N
b00000000000000000000000000000000 "6
b00000000000000000000000000000000 S
b00000000000000000000000000000000 "!
b00000000000000000000000000000000 p
b00000000000000000000000000000000 !
b0000000000000000 v
0i
0"3
b00000000000000000000000000000000 #
b0000000000000000 "A
b0000000000000000 ",
09
b0000000000000000 "$
b0000000000000000 U
0"/
b0000000000000000 8
03
0|
b0000000000000000 "R
b0000 b
b00000000000000000000000000000000 "E
b00000000000000000000000000000000 M
b0000 d
b0000000000000000 }
b0000000000000000 h
b0000 \
01
0"%
b00000000000000000000000000000000 ,
0"S
b00000000000000000000000000000000 C
b0000000000000000 2
b00000000000000000000000000000000 o
1:
b0000 "8
b0000000000000000 A
b0000000000000000 "F
b0000 "G
b0000000000000000 &
0j
b0000000000000000 "+
b00000000000000000000000000000000 N
b0000000000000000 ":
b0000 "C
b00000000000000000000000000000000 "J
b0000000000000000 $
b0000 L
b0000 "T
1"D
b0000000000000000 R
b00000000000000000000000000000000 c
b0000000000000000 ~
0y
b00000000000000000000000000000000 z
0G
0";
b0000 +
b0000000000000000 7
b0000000000000000 /
b00000000000000000000000000000000 "B
0^
0s
b0000000000000000 "4
b0000000000000000 F
b0000000000000000 e
b0000000000000000 "K
$end
#0
1"O
b0001 Q
b00000000000000000000000110010000 <
b0001 J
b0000000000000001 }
1i
b0001 L
1"<
b0000000000000001 "'
b00000000000000000000000110010000 N
b00000000000000000000000110010000 "!
b0000000000000001 "0
b00000000000000000000000110010000 z
1""
b0000000000000010 {
b0010 "8
1O
1I
b00000000000000000000000110010000 "*
b0111 P
b00000000000000000000000110010000 n
#1
10
1?
1r
1"P
1y
1";
1(
#6
00
0?
0r
0"P
0y
0";
0(
#11
10
1?
1r
1"P
1y
1";
1(
#16
00
0?
0r
0"P
0y
0";
0(
#21
10
1?
1r
1"P
1y
1";
1(
#26
00
0?
0r
0"P
0y
0";
0(
#31
10
1?
1r
1"P
1y
1";
1(
#36
00
0?
0r
0"P
0y
0";
0(
#41
10
1?
1r
1"P
1y
1";
1(
#46
13
1f
0"P
1w
0";
16
1a
0(
00
0?
0r
0y
11
1"7
0""
0O
0"O
#51
10
1?
1r
1"P
1y
1";
1")
1(
#56
00
0?
0r
0"P
b0000000000000001 %
0y
b0000000000000001 "$
0";
0(
b0000000000000001 t
b0000000000000001 ".
#61
10
1?
1r
1"P
1y
b0000000000000001 .
1";
1(
#66
00
0?
0r
0"P
b0000000000000010 %
0y
b0000000000000010 "$
0";
0(
b0000000000000010 t
b0000000000000010 ".
#71
10
1?
1r
1"P
1y
b0000000000000010 .
1";
1(
#76
00
0?
0r
0"P
b0000000000000011 %
0y
b0000000000000011 "$
0";
0(
b0000000000000011 t
b0000000000000011 ".
#81
10
1?
1r
1"P
1y
b0000000000000011 .
1";
1(
#86
00
0?
0r
0"P
b0000000000000100 %
0y
b0000000000000100 "$
0";
0(
b0000000000000100 t
b0000000000000100 ".
#91
10
1?
1r
1"P
1y
b0000000000000100 .
1";
1(
#96
00
0?
0r
0"P
b0000000000000101 %
0y
b0000000000000101 "$
0";
0(
b0000000000000101 t
b0000000000000101 ".
#101
10
1?
1r
1"P
1y
b0000000000000101 .
1";
1(
#106
00
0?
0r
0"P
b0000000000000110 %
0y
b0000000000000110 "$
0";
0(
b0000000000000110 t
b0000000000000110 ".
#111
10
1?
1r
1"P
1y
b0000000000000110 .
1";
1(
#116
00
0?
0r
0"P
b0000000000000111 %
0y
b0000000000000111 "$
0";
0(
b0000000000000111 t
b0000000000000111 ".
#121
10
1?
1r
1"P
1y
b0000000000000111 .
1";
1(
#126
00
0?
0r
0"P
b0000000000001000 %
0y
b0000000000001000 "$
0";
0(
b0000000000001000 t
b0000000000001000 ".
#131
10
1?
1r
1"P
1y
b0000000000001000 .
1";
1(
#136
00
0?
0r
0"P
b0000000000001001 %
0y
b0000000000001001 "$
0";
0(
b0000000000001001 t
b0000000000001001 ".
#141
10
1?
1r
1"P
1y
b0000000000001001 .
1";
1(
#146
00
0?
0r
0"P
b0000000000001010 %
0y
b0000000000001010 "$
0";
0(
b0000000000001010 t
b0000000000001010 ".
#151
10
1?
1r
1"P
1y
b0000000000001010 .
1";
1(
#156
00
0?
0r
0"P
b0000000000001011 %
0y
b0000000000001011 "$
0";
0(
b0000000000001011 t
b0000000000001011 ".
#161
10
1?
1r
1"P
1y
b0000000000001011 .
1";
1(
#166
00
0?
0r
0"P
b0000000000001100 %
0y
b0000000000001100 "$
0";
0(
b0000000000001100 t
b0000000000001100 ".
#171
10
1?
1r
1"P
1y
b0000000000001100 .
1";
1(
#176
00
0?
0r
0"P
b0000000000001101 %
0y
b0000000000001101 "$
0";
0(
b0000000000001101 t
b0000000000001101 ".
#181
10
1?
1r
1"P
1y
b0000000000001101 .
1";
1(
#186
00
0?
0r
0"P
b0000000000001110 %
0y
b0000000000001110 "$
0";
0(
b0000000000001110 t
b0000000000001110 ".
#191
10
1?
1r
1"P
1y
b0000000000001110 .
1";
1(
#196
00
0?
0r
0"P
b0000000000001111 %
0y
b0000000000001111 "$
0";
0(
b0000000000001111 t
b0000000000001111 ".
#201
10
1?
1r
1"P
1y
b0000000000001111 .
1";
1(
#206
00
0?
0r
0"P
b0000000000010000 %
0y
b0000000000010000 "$
0";
0(
b0000000000010000 t
b0000000000010000 ".
#211
10
1?
1r
1"P
1y
b0000000000010000 .
1";
1(
#216
00
0?
0r
0"P
b0000000000010001 %
0y
b0000000000010001 "$
0";
0(
b0000000000010001 t
b0000000000010001 ".
#221
10
1?
1r
1"P
1y
b0000000000010001 .
1";
1(
#226
00
0?
0r
0"P
b0000000000010010 %
0y
b0000000000010010 "$
0";
0(
b0000000000010010 t
b0000000000010010 ".
#231
10
1?
1r
1"P
1y
b0000000000010010 .
1";
1(
#236
00
0?
0r
0"P
b0000000000010011 %
0y
b0000000000010011 "$
0";
0(
b0000000000010011 t
b0000000000010011 ".
#241
10
1?
1r
1"P
1y
b0000000000010011 .
1";
1(
#246
00
0?
0r
0"P
b0000000000010100 %
0y
b0000000000010100 "$
0";
0(
b0000000000010100 t
b0000000000010100 ".
#251
10
1?
1r
1"P
1y
b0000000000010100 .
1";
1(
#256
00
0?
0r
0"P
b0000000000010101 %
0y
b0000000000010101 "$
0";
0(
b0000000000010101 t
b0000000000010101 ".
#261
10
1?
1r
1"P
1y
b0000000000010101 .
1";
1(
#266
00
0?
0r
0"P
b0000000000010110 %
0y
b0000000000010110 "$
0";
0(
b0000000000010110 t
b0000000000010110 ".
#271
10
1?
1r
1"P
1y
b0000000000010110 .
1";
1(
#276
00
0?
0r
0"P
b0000000000010111 %
0y
b0000000000010111 "$
0";
0(
b0000000000010111 t
b0000000000010111 ".
#281
10
1?
1r
1"P
1y
b0000000000010111 .
1";
1(
#286
00
0?
0r
0"P
b0000000000011000 %
0y
b0000000000011000 "$
0";
0(
b0000000000011000 t
b0000000000011000 ".
#291
10
1?
1r
1"P
1y
b0000000000011000 .
1";
1(
#296
00
0?
0r
0"P
b0000000000011001 %
0y
b0000000000011001 "$
0";
0(
b0000000000011001 t
b0000000000011001 ".
#301
10
1?
1r
1"P
1y
b0000000000011001 .
1";
1(
#306
00
0?
0r
0"P
b0000000000011010 %
0y
b0000000000011010 "$
0";
0(
b0000000000011010 t
b0000000000011010 ".
#311
10
1?
1r
1"P
1y
b0000000000011010 .
1";
1(
#316
00
0?
0r
0"P
b0000000000011011 %
0y
b0000000000011011 "$
0";
0(
b0000000000011011 t
b0000000000011011 ".
#321
10
1?
1r
1"P
1y
b0000000000011011 .
1";
1(
#326
00
0?
0r
0"P
b0000000000011100 %
0y
b0000000000011100 "$
0";
0(
b0000000000011100 t
b0000000000011100 ".
#331
10
1?
1r
1"P
1y
b0000000000011100 .
1";
1(
#336
00
0?
0r
0"P
b0000000000011101 %
0y
b0000000000011101 "$
0";
0(
b0000000000011101 t
b0000000000011101 ".
#341
10
1?
1r
1"P
1y
b0000000000011101 .
1";
1(
#346
00
0?
0r
0"P
b0000000000011110 %
0y
b0000000000011110 "$
0";
0(
b0000000000011110 t
b0000000000011110 ".
#351
10
1?
1r
1"P
1y
b0000000000011110 .
1";
1(
#356
00
0?
0r
0"P
b0000000000011111 %
0y
b0000000000011111 "$
0";
0(
b0000000000011111 t
b0000000000011111 ".
#361
10
1?
1r
1"P
1y
b0000000000011111 .
1";
1(
#366
00
0?
0r
0"P
b0000000000100000 %
0y
b0000000000100000 "$
0";
0(
b0000000000100000 t
b0000000000100000 ".
#371
10
1?
1r
1"P
1y
b0000000000100000 .
1";
1(
#376
00
0?
0r
0"P
b0000000000100001 %
0y
b0000000000100001 "$
0";
0(
b0000000000100001 t
b0000000000100001 ".
#381
10
1?
1r
1"P
1y
b0000000000100001 .
1";
1(
#386
00
0?
0r
0"P
b0000000000100010 %
0y
b0000000000100010 "$
0";
0(
b0000000000100010 t
b0000000000100010 ".
#391
10
1?
1r
1"P
1y
b0000000000100010 .
1";
1(
#396
00
0?
0r
0"P
b0000000000100011 %
0y
b0000000000100011 "$
0";
0(
b0000000000100011 t
b0000000000100011 ".
#401
10
1?
1r
1"P
1y
b0000000000100011 .
1";
1(
#406
00
0?
0r
0"P
b0000000000100100 %
0y
b0000000000100100 "$
0";
0(
b0000000000100100 t
b0000000000100100 ".
#411
10
1?
1r
1"P
1y
b0000000000100100 .
1";
1(
#416
00
0?
0r
0"P
b0000000000100101 %
0y
b0000000000100101 "$
0";
0(
b0000000000100101 t
b0000000000100101 ".
#421
10
1?
1r
1"P
1y
b0000000000100101 .
1";
1(
#426
00
0?
0r
0"P
b0000000000100110 %
0y
b0000000000100110 "$
0";
0(
b0000000000100110 t
b0000000000100110 ".
#431
10
1?
1r
1"P
1y
b0000000000100110 .
1";
1(
#436
00
0?
0r
0"P
b0000000000100111 %
0y
b0000000000100111 "$
0";
0(
b0000000000100111 t
b0000000000100111 ".
#441
10
1?
1r
1"P
1y
b0000000000100111 .
1";
1(
#446
00
0?
0r
0"P
b0000000000101000 %
0y
b0000000000101000 "$
0";
0(
b0000000000101000 t
b0000000000101000 ".
#451
10
1?
1r
1"P
1y
b0000000000101000 .
1";
1(
#456
00
0?
0r
0"P
b0000000000101001 %
0y
b0000000000101001 "$
0";
0(
b0000000000101001 t
b0000000000101001 ".
#461
10
1?
1r
1"P
1y
b0000000000101001 .
1";
1(
#466
00
0?
0r
0"P
b0000000000101010 %
0y
b0000000000101010 "$
0";
0(
b0000000000101010 t
b0000000000101010 ".
#471
10
1?
1r
1"P
1y
b0000000000101010 .
1";
1(
#476
00
0?
0r
0"P
b0000000000101011 %
0y
b0000000000101011 "$
0";
0(
b0000000000101011 t
b0000000000101011 ".
#481
10
1?
1r
1"P
1y
b0000000000101011 .
1";
1(
#486
00
0?
0r
0"P
b0000000000101100 %
0y
b0000000000101100 "$
0";
0(
b0000000000101100 t
b0000000000101100 ".
#491
10
1?
1r
1"P
1y
b0000000000101100 .
1";
1(
#496
00
0?
0r
0"P
b0000000000101101 %
0y
b0000000000101101 "$
0";
0(
b0000000000101101 t
b0000000000101101 ".
#501
10
1?
1r
1"P
1y
b0000000000101101 .
1";
1(
#506
00
0?
0r
0"P
b0000000000101110 %
0y
b0000000000101110 "$
0";
0(
b0000000000101110 t
b0000000000101110 ".
#511
10
1?
1r
1"P
1y
b0000000000101110 .
1";
1(
#516
00
0?
0r
0"P
b0000000000101111 %
0y
b0000000000101111 "$
0";
0(
b0000000000101111 t
b0000000000101111 ".
#521
10
1?
1r
1"P
1y
b0000000000101111 .
1";
1(
#526
00
0?
0r
0"P
b0000000000110000 %
0y
b0000000000110000 "$
0";
0(
b0000000000110000 t
b0000000000110000 ".
#531
10
1?
1r
1"P
1y
b0000000000110000 .
1";
1(
#536
00
0?
0r
0"P
b0000000000110001 %
0y
b0000000000110001 "$
0";
0(
b0000000000110001 t
b0000000000110001 ".
#541
10
1?
1r
1"P
1y
b0000000000110001 .
1";
1(
#546
00
0?
0r
0"P
b0000000000110010 %
0y
b0000000000110010 "$
0";
0(
b0000000000110010 t
b0000000000110010 ".
#551
10
1?
1r
1"P
1y
b0000000000110010 .
1";
1(
#556
00
0?
0r
0"P
b0000000000110011 %
0y
b0000000000110011 "$
0";
0(
b0000000000110011 t
b0000000000110011 ".
#561
10
1?
1r
1"P
1y
b0000000000110011 .
1";
1(
#566
00
0?
0r
0"P
b0000000000110100 %
0y
b0000000000110100 "$
0";
0(
b0000000000110100 t
b0000000000110100 ".
#571
10
1?
1r
1"P
1y
b0000000000110100 .
1";
1(
#576
00
0?
0r
0"P
b0000000000110101 %
0y
b0000000000110101 "$
0";
0(
b0000000000110101 t
b0000000000110101 ".
#581
10
1?
1r
1"P
1y
b0000000000110101 .
1";
1(
#586
00
0?
0r
0"P
b0000000000110110 %
0y
b0000000000110110 "$
0";
0(
b0000000000110110 t
b0000000000110110 ".
#591
10
1?
1r
1"P
1y
b0000000000110110 .
1";
1(
#596
00
0?
0r
0"P
b0000000000110111 %
0y
b0000000000110111 "$
0";
0(
b0000000000110111 t
b0000000000110111 ".
#601
10
1?
1r
1"P
1y
b0000000000110111 .
1";
1(
#606
00
0?
0r
0"P
b0000000000111000 %
0y
b0000000000111000 "$
0";
0(
b0000000000111000 t
b0000000000111000 ".
#611
10
1?
1r
1"P
1y
b0000000000111000 .
1";
1(
#616
00
0?
0r
0"P
b0000000000111001 %
0y
b0000000000111001 "$
0";
0(
b0000000000111001 t
b0000000000111001 ".
#621
10
1?
1r
1"P
1y
b0000000000111001 .
1";
1(
#626
00
0?
0r
0"P
b0000000000111010 %
0y
b0000000000111010 "$
0";
0(
b0000000000111010 t
b0000000000111010 ".
#631
10
1?
1r
1"P
1y
b0000000000111010 .
1";
1(
#636
00
0?
0r
0"P
b0000000000111011 %
0y
b0000000000111011 "$
0";
0(
b0000000000111011 t
b0000000000111011 ".
#641
10
1?
1r
1"P
1y
b0000000000111011 .
1";
1(
#646
00
0?
0r
0"P
b0000000000111100 %
0y
b0000000000111100 "$
0";
0(
b0000000000111100 t
b0000000000111100 ".
#651
10
1?
1r
1"P
1y
b0000000000111100 .
1";
1(
#656
00
0?
0r
0"P
b0000000000111101 %
0y
b0000000000111101 "$
0";
0(
b0000000000111101 t
b0000000000111101 ".
#661
10
1?
1r
1"P
1y
b0000000000111101 .
1";
1(
#666
00
0?
0r
0"P
b0000000000111110 %
0y
b0000000000111110 "$
0";
0(
b0000000000111110 t
b0000000000111110 ".
#671
10
1?
1r
1"P
1y
b0000000000111110 .
1";
1(
#676
00
0?
0r
0"P
b0000000000111111 %
0y
b0000000000111111 "$
0";
0(
b0000000000111111 t
b0000000000111111 ".
#681
10
1?
1r
1"P
1y
b0000000000111111 .
1";
1(
#686
00
0?
0r
0"P
b0000000001000000 %
0y
b0000000001000000 "$
0";
0(
b0000000001000000 t
b0000000001000000 ".
#691
10
1?
1r
1"P
1y
b0000000001000000 .
1";
1(
#696
00
0?
0r
0"P
b0000000001000001 %
0y
b0000000001000001 "$
0";
0(
b0000000001000001 t
b0000000001000001 ".
#701
10
1?
1r
1"P
1y
b0000000001000001 .
1";
1(
#706
00
0?
0r
0"P
b0000000001000010 %
0y
b0000000001000010 "$
0";
0(
b0000000001000010 t
b0000000001000010 ".
#711
10
1?
1r
1"P
1y
b0000000001000010 .
1";
1(
#716
00
0?
0r
0"P
b0000000001000011 %
0y
b0000000001000011 "$
0";
0(
b0000000001000011 t
b0000000001000011 ".
#721
10
1?
1r
1"P
1y
b0000000001000011 .
1";
1(
#726
00
0?
0r
0"P
b0000000001000100 %
0y
b0000000001000100 "$
0";
0(
b0000000001000100 t
b0000000001000100 ".
#731
10
1?
1r
1"P
1y
b0000000001000100 .
1";
1(
#736
00
0?
0r
0"P
b0000000001000101 %
0y
b0000000001000101 "$
0";
0(
b0000000001000101 t
b0000000001000101 ".
#741
10
1?
1r
1"P
1y
b0000000001000101 .
1";
1(
#746
00
0?
0r
0"P
b0000000001000110 %
0y
b0000000001000110 "$
0";
0(
b0000000001000110 t
b0000000001000110 ".
#751
10
1?
1r
1"P
1y
b0000000001000110 .
1";
1(
#756
00
0?
0r
0"P
b0000000001000111 %
0y
b0000000001000111 "$
0";
0(
b0000000001000111 t
b0000000001000111 ".
#761
10
1?
1r
1"P
1y
b0000000001000111 .
1";
1(
#766
00
0?
0r
0"P
b0000000001001000 %
0y
b0000000001001000 "$
0";
0(
b0000000001001000 t
b0000000001001000 ".
#771
10
1?
1r
1"P
1y
b0000000001001000 .
1";
1(
#776
00
0?
0r
0"P
b0000000001001001 %
0y
b0000000001001001 "$
0";
0(
b0000000001001001 t
b0000000001001001 ".
#781
10
1?
1r
1"P
1y
b0000000001001001 .
1";
1(
#786
00
0?
0r
0"P
b0000000001001010 %
0y
b0000000001001010 "$
0";
0(
b0000000001001010 t
b0000000001001010 ".
#791
10
1?
1r
1"P
1y
b0000000001001010 .
1";
1(
#796
00
0?
0r
0"P
b0000000001001011 %
0y
b0000000001001011 "$
0";
0(
b0000000001001011 t
b0000000001001011 ".
#801
10
1?
1r
1"P
1y
b0000000001001011 .
1";
1(
#806
00
0?
0r
0"P
b0000000001001100 %
0y
b0000000001001100 "$
0";
0(
b0000000001001100 t
b0000000001001100 ".
#811
10
1?
1r
1"P
1y
b0000000001001100 .
1";
1(
#816
00
0?
0r
0"P
b0000000001001101 %
0y
b0000000001001101 "$
0";
0(
b0000000001001101 t
b0000000001001101 ".
#821
10
1?
1r
1"P
1y
b0000000001001101 .
1";
1(
#826
00
0?
0r
0"P
b0000000001001110 %
0y
b0000000001001110 "$
0";
0(
b0000000001001110 t
b0000000001001110 ".
#831
10
1?
1r
1"P
1y
b0000000001001110 .
1";
1(
#836
00
0?
0r
0"P
b0000000001001111 %
0y
b0000000001001111 "$
0";
0(
b0000000001001111 t
b0000000001001111 ".
#841
10
1?
1r
1"P
1y
b0000000001001111 .
1";
1(
#846
00
0?
0r
0"P
b0000000001010000 %
0y
b0000000001010000 "$
0";
0(
b0000000001010000 t
b0000000001010000 ".
#851
10
1?
1r
1"P
1y
b0000000001010000 .
1";
1(
#856
00
0?
0r
0"P
b0000000001010001 %
0y
b0000000001010001 "$
0";
0(
b0000000001010001 t
b0000000001010001 ".
#861
10
1?
1r
1"P
1y
b0000000001010001 .
1";
1(
#866
00
0?
0r
0"P
b0000000001010010 %
0y
b0000000001010010 "$
0";
0(
b0000000001010010 t
b0000000001010010 ".
#871
10
1?
1r
1"P
1y
b0000000001010010 .
1";
1(
#876
00
0?
0r
0"P
b0000000001010011 %
0y
b0000000001010011 "$
0";
0(
b0000000001010011 t
b0000000001010011 ".
#881
10
1?
1r
1"P
1y
b0000000001010011 .
1";
1(
#886
00
0?
0r
0"P
b0000000001010100 %
0y
b0000000001010100 "$
0";
0(
b0000000001010100 t
b0000000001010100 ".
#891
10
1?
1r
1"P
1y
b0000000001010100 .
1";
1(
#896
00
0?
0r
0"P
b0000000001010101 %
0y
b0000000001010101 "$
0";
0(
b0000000001010101 t
b0000000001010101 ".
#901
10
1?
1r
1"P
1y
b0000000001010101 .
1";
1(
#906
00
0?
0r
0"P
b0000000001010110 %
0y
b0000000001010110 "$
0";
0(
b0000000001010110 t
b0000000001010110 ".
#911
10
1?
1r
1"P
1y
b0000000001010110 .
1";
1(
#916
00
0?
0r
0"P
b0000000001010111 %
0y
b0000000001010111 "$
0";
0(
b0000000001010111 t
b0000000001010111 ".
#921
10
1?
1r
1"P
1y
b0000000001010111 .
1";
1(
#926
00
0?
0r
0"P
b0000000001011000 %
0y
b0000000001011000 "$
0";
0(
b0000000001011000 t
b0000000001011000 ".
#931
10
1?
1r
1"P
1y
b0000000001011000 .
1";
1(
#936
00
0?
0r
0"P
b0000000001011001 %
0y
b0000000001011001 "$
0";
0(
b0000000001011001 t
b0000000001011001 ".
#941
10
1?
1r
1"P
1y
b0000000001011001 .
1";
1(
#946
00
0?
0r
0"P
b0000000001011010 %
0y
b0000000001011010 "$
0";
0(
b0000000001011010 t
b0000000001011010 ".
#951
10
1?
1r
1"P
1y
b0000000001011010 .
1";
1(
#956
00
0?
0r
0"P
b0000000001011011 %
0y
b0000000001011011 "$
0";
0(
b0000000001011011 t
b0000000001011011 ".
#961
10
1?
1r
1"P
1y
b0000000001011011 .
1";
1(
#966
00
0?
0r
0"P
b0000000001011100 %
0y
b0000000001011100 "$
0";
0(
b0000000001011100 t
b0000000001011100 ".
#971
10
1?
1r
1"P
1y
b0000000001011100 .
1";
1(
#976
00
0?
0r
0"P
b0000000001011101 %
0y
b0000000001011101 "$
0";
0(
b0000000001011101 t
b0000000001011101 ".
#981
10
1?
1r
1"P
1y
b0000000001011101 .
1";
1(
#986
00
0?
0r
0"P
b0000000001011110 %
0y
b0000000001011110 "$
0";
0(
b0000000001011110 t
b0000000001011110 ".
#991
10
1?
1r
1"P
1y
b0000000001011110 .
1";
1(
#996
0"P
b0000000001011111 %
b0000000001011111 "$
b00000000000000000000000011111111 "B
b00000000000000000000000011111111 S
b00000000000000000000000011111111 '
0";
0(
b0000000001011111 ".
00
0?
0r
b00000000000000000000000011111111 c
0y
b00000000000000000000000011111111 #
b00000000000000000000000011111111 V
b0000000001011111 t
#1001
10
1?
1r
1"P
1y
b0000000001011111 .
b00000000000000000000000011111111 "I
1";
b00000000000000000000000011111111 p
1(
#1006
0"P
b0000000001100000 %
b0000000001100000 "$
b00000000000000000000000000000000 "B
b00000000000000000000000000000000 "I
b00000000000000000000000000000000 S
b00000000000000000000000000000000 '
0";
0(
b0000000001100000 ".
00
0?
0r
b00000000000000000000000000000000 c
0y
b00000000000000000000000000000000 #
b00000000000000000000000000000000 V
b0000000001100000 t
#1011
10
1?
1r
1"P
1y
b0000000001100000 .
1";
b00000000000000000000000000000000 p
1(
#1016
00
0?
0r
0"P
b0000000001100001 %
0y
b0000000001100001 "$
0";
0(
b0000000001100001 t
b0000000001100001 ".
#1021
10
1?
1r
1"P
1y
b0000000001100001 .
1";
1(
#1026
00
0?
0r
0"P
b0000000001100010 %
0y
b0000000001100010 "$
0";
0(
b0000000001100010 t
b0000000001100010 ".
#1031
10
1?
1r
1"P
1y
b0000000001100010 .
1";
1(
#1036
00
0?
0r
0"P
b0000000001100011 %
0y
b0000000001100011 "$
0";
0(
b0000000001100011 t
b0000000001100011 ".
#1041
10
1?
1r
1"P
1y
b0000000001100011 .
1";
1(
